…
The above plot reveals some interesting findings:

Sedentary minutes is not a uniformly continuous variable in this dataset. There are well-defined values for this variable, possibly by design.

As expected, subjects with sedentary minutes below 120 minutes per week have healthy levels of bmi.

With higher levels of sedentary activity, the bmi levels are highly erratic. While we noticed earlier from the correlation matrix that there was no strong correlation between these two variables, it is unusual to see that for sedentary time above 480 minutes per week, individuals actually have, on average, healthier levels of bmi. This indicates that there are other factors at play, such as work/recreational/walking or biking activity, gender, hdl.

Let us isolate this group and look at their other parameters:

## # A tibble: 35 x 4
##    sedmin bmi_mean bmi_median     n
##    <fct>     <dbl>      <dbl> <int>
##  1 840        27.1       26.6    46
##  2 780        29.4       26.0    23
##  3 720        29.5       28.6   172
##  4 660        28.5       27.4    52
##  5 600        29.9       29.1   292
##  6 540        28.2       27.1   106
##  7 480        29.9       29.0   511
##  8 420        28.8       27.4   204
##  9 360        28.8       28.0   586
## 10 300        29.3       28.5   537
## # ... with 25 more rows
…
